<?xml version="1.0" encoding="utf-8"?>
<!-- Generator: Adobe Illustrator 25.2.1, SVG Export Plug-In . SVG Version: 6.00 Build 0)  -->
<svg version="1.1" id="Camada_1" xmlns="http://www.w3.org/2000/svg" xmlns:xlink="http://www.w3.org/1999/xlink" x="0px" y="0px"
	 viewBox="0 0 333.4 115.6" style="enable-background:new 0 0 333.4 115.6;" xml:space="preserve">
<style type="text/css">
	.st0{fill:#BABABA;}
</style>
<g>
	<path class="st0" d="M84.3,18.6h0.8v-7.1l-36.6,0l0,0.8h2.5c1,0,1.9,0.8,1.9,1.8v56.9c0,1-0.8,1.8-1.9,1.8h-2.5v0.8h36.6v-7.1h-0.8
		c-0.1,3.5-3.1,6.3-6.7,6.3l-17.9,0c-1,0-0.8-0.8-0.8-1.9V43.4h10.5c3,0,5.5,2.3,5.6,5.3h0.8V37.2H75c-0.1,3-2.6,5.4-5.6,5.4H58.9
		V12.4l0.3,0h18.4C81.2,12.4,84.1,15.1,84.3,18.6z"/>
	<g>
		<path class="st0" d="M181.2,70.7C181.2,70.7,181.2,70.7,181.2,70.7C181.2,70.7,181.2,70.7,181.2,70.7c-0.2,0-0.7,0.1-1.1,0.2
			l-0.4,0.1c-9.7,2.1-17.2,0.8-33.6-11.9c-1.6-1.2-3.4-2.4-4.9-3.5l-0.7-0.5l4.1,0c0.9,0,1.8,0,2.6-0.1
			c12.6-1.5,22.1-10.8,22.1-21.8c0-5.2-2.2-10.3-6.2-14.3c-3.5-3.5-8.2-6-13.3-7c-1.1-0.2-2.2-0.3-3.5-0.3h-29.1v0.8h2.5
			c1,0,1.9,0.8,1.9,1.8v56.9c0,1-0.8,1.8-1.9,1.8h-2.5v0.8h14v-0.8h-1.6c-1,0-1.9-0.8-1.9-1.9V49.5c0,0,10.5,7,16.7,11.7
			c7,5.2,14.3,10.7,20.8,12.3c6,1.5,10.7,1.1,13.8-1.1C179.7,72,181,71.2,181.2,70.7z M138.9,53.9c-6-4.1-11.1-7-11.1-7V12.4h12.1
			c5.1,0,12.2,1.2,17.5,6.8c0.2,0.2,0.4,0.4,0.6,0.6c3.4,3.9,5.2,8.5,5.2,13.4c0,4.8-0.7,9.6-4.1,13.4c-4.3,4.9-11.8,7.8-18.7,7.8
			h-0.9L138.9,53.9z"/>
		<path class="st0" d="M222.9,18.6h0.8v-7.1l-36.6,0v0.8h2.5c1,0,1.9,0.8,1.9,1.8v56.9c0,1-0.8,1.8-1.9,1.8h-2.5v0.8h36.6v-7.1h-0.8
			c-0.1,3.5-3.1,6.3-6.7,6.3l-16.8,0c-1,0-1.9-0.8-1.9-1.9V43.4H208c3,0,5.5,2.3,5.6,5.3h0.8V37.2h-0.8c-0.1,3-2.6,5.4-5.6,5.4
			h-10.5V12.4l0.3,0h18.4C219.8,12.4,222.7,15.1,222.9,18.6z"/>
		<path class="st0" d="M279.2,12.4h1.5v-0.8h-4.2l0,0l-6,0v0.8c1.1,0.1,2.2,0.6,2.8,1.5c0.7,1,0.9,2.2,0.6,3.4l-15,50.4l-15.9-50.4
			c-0.4-1.2-0.2-2.4,0.6-3.4c0.7-0.9,1.7-1.5,2.9-1.5v-0.8l-6.4,0l0,0l-9.6,0v0.8h1.7c1.7,0,3.2,1.1,3.7,2.7l18.5,58.8h3.3L275.5,15
			C276.1,13.4,277.5,12.4,279.2,12.4z"/>
		<path class="st0" d="M324,18.6h0.8v-7.1l-36.6,0l0,0.8h2.5c1,0,1.9,0.8,1.9,1.8v56.9c0,1-0.8,1.8-1.9,1.8h-2.5v0.8h36.6v-7.1H324
			c-0.1,3.5-3.1,6.3-6.7,6.3l-17.9,0c-1,0-0.8-0.8-0.8-1.9V43.4h10.5c3,0,5.5,2.3,5.6,5.3h0.8V37.2h-0.8c-0.1,3-2.6,5.4-5.6,5.4
			h-10.5V12.4l0.3,0h18.4C321,12.4,323.9,15.1,324,18.6z"/>
		<path class="st0" d="M40.3,66.7h-0.8c-0.1,3.5-3.1,6.3-6.7,6.3l-16.8,0c-1.1,0-1.9-0.8-1.9-1.9l0-56.9c0-1,0.8-1.8,1.9-1.8h2.5
			v-0.8H3.7v0.8h2.5c1,0,1.9,0.8,1.9,1.8v56.9c0,1-0.8,1.8-1.9,1.8H3.7v0.8h36.6V66.7z"/>
		<g>
			<path class="st0" d="M92.2,94.7h7.1c2.6,0,4.2,1.3,4.2,3.5c0,1.4-0.7,2.5-1.9,3c1.7,0.3,3.5,2,3.5,4.3c0,2.9-2.2,4.7-5.9,4.7h-7
				V94.7z M99.8,100.8c1.6,0,2.6-1.2,2.6-2.6c0-1.7-1.2-2.6-3.2-2.6h-6.1v5.3H99.8z M99.2,109.3c2.9,0,4.9-1.4,4.9-3.8
				c0-2.1-1.7-3.8-4.2-3.8h-6.7v7.6H99.2z"/>
			<path class="st0" d="M119.7,94.6h0.7l7.7,15.5h-1l-1.7-3.4h-10.7l-1.7,3.4h-1L119.7,94.6z M125,105.9l-4.1-8.2
				c-0.6-1.3-0.9-1.9-0.9-1.9s-0.3,0.6-0.9,1.9l-4.1,8.2H125z"/>
			<path class="st0" d="M135.8,94.7h0.9l10.3,12.8c0.4,0.5,0.8,1.2,0.8,1.2v-14h1v15.4h-1l-10.2-12.7c-0.5-0.5-0.8-1.2-0.8-1.2v13.9
				h-1V94.7z"/>
			<path class="st0" d="M158.1,94.7h5.8c4.9,0,8.1,3.5,8.1,7.7s-3.1,7.7-8.1,7.7h-5.8V94.7z M163.7,109.3c4.3,0,7.2-2.9,7.2-6.9
				c0-3.9-2.9-6.9-7.2-6.9h-4.6v13.7H163.7z"/>
			<path class="st0" d="M185.9,94.6h0.7l7.7,15.5h-1l-1.7-3.4h-10.7l-1.7,3.4h-1L185.9,94.6z M191.2,105.9l-4.1-8.2
				c-0.6-1.3-0.9-1.9-0.9-1.9s-0.3,0.6-0.9,1.9l-4.1,8.2H191.2z"/>
			<path class="st0" d="M200.5,102.4c0-4.4,3.5-7.9,8.1-7.9c2.1,0,4,0.7,5.6,2.2l-0.6,0.6c-1.3-1.2-2.9-1.9-5-1.9
				c-4,0-7.1,3.1-7.1,7c0,3.9,3.1,7,7.1,7c2.4,0,4.6-1.2,5.8-3v-3.9h-4v-0.9h5v5c-1.5,2.2-3.9,3.6-6.8,3.6
				C204,110.4,200.5,106.9,200.5,102.4z"/>
			<path class="st0" d="M224.5,94.7H236v0.9h-10.6v5.7h9.8v0.9h-9.8v7.1h11v0.9h-11.9V94.7z"/>
		</g>
		<polygon class="st0" points="208.2,1.8 207.5,1.8 200,7.5 202.1,7.5 208.1,4.6 213.7,7.5 215.8,7.5 		"/>
	</g>
</g>
</svg>
